1 | 7356482549690205 | 817 | 2017/08 | 331 | 3 | 91412
2 | 8668636979104839 | 449 | 2017/08 | 229 | 2 | 25547
3 | 6301777836368885 | 815 | 2017/08 | 136 | 2 | 1810
4 | 7756232375285420 | 381 | 2017/08 | 383 | 2 | 94855
5 | 6912438378205995 | 462 | 2017/08 | 616 | 3 | 63171
6 | 2865051200721253 | 407 | 2017/08 | 344 | 2 | 78149
7 | 5731863518903849 | 288 | 2017/08 | 862 | 2 | 40253
8 | 1399689352495115 | 406 | 2017/08 | 672 | 2 | 42359
9 | 7712818786504667 | 456 | 2017/08 | 101 | 1 | 80193
10 | 5167331984897964 | 815 | 2017/08 | 880 | 2 | 50971
11 | 6333724452071134 | 330 | 2017/08 | 507 | 1 | 74618
12 | 2146279095080922 | 707 | 2017/08 | 787 | 2 | 46265
13 | 3747817682374906 | 565 | 2017/08 | 484 | 3 | 72349
14 | 9075608420524372 | 246 | 2017/08 | 788 | 2 | 96036
15 | 3233142212379099 | 950 | 2017/08 | 685 | 3 | 69545
16 | 5476389499712607 | 938 | 2017/08 | 153 | 1 | 43254
17 | 5196120499787135 | 238 | 2017/08 | 946 | 3 | 96422
18 | 9182351879842816 | 856 | 2017/08 | 112 | 2 | 65845
19 | 9835202269052910 | 725 | 2017/08 | 840 | 1 | 32583
20 | 8697182106668585 | 411 | 2017/08 | 232 | 2 | 40210
21 | 6243990865122915 | 852 | 2017/08 | 448 | 1 | 84362
22 | 3977205112942777 | 980 | 2017/08 | 915 | 3 | 88711
23 | 8128620195791138 | 320 | 2017/08 | 830 | 3 | 38676
24 | 1910704077024887 | 911 | 2017/08 | 361 | 1 | 33430
25 | 7538448479227230 | 155 | 2017/08 | 383 | 2 | 49175
26 | 5505329993151679 | 717 | 2017/08 | 270 | 1 | 81102
27 | 1621916901028273 | 973 | 2017/08 | 320 | 2 | 94317
28 | 7857811793054145 | 349 | 2017/08 | 968 | 3 | 5831
29 | 8683384672561955 | 940 | 2017/08 | 589 | 1 | 48348
30 | 7448521206154076 | 656 | 2017/08 | 747 | 3 | 9154
31 | 9947727896212454 | 975 | 2017/08 | 295 | 1 | 92785
32 | 7338501508750267 | 345 | 2017/08 | 987 | 3 | 29323
33 | 8856399645918368 | 379 | 2017/08 | 951 | 2 | 13351
34 | 3937586429594276 | 659 | 2017/08 | 775 | 1 | 40217
35 | 1293600381491052 | 180 | 2017/08 | 377 | 1 | 17343
36 | 6226619107324135 | 556 | 2017/08 | 482 | 1 | 47114
37 | 4449350771679455 | 677 | 2017/08 | 202 | 2 | 61159
38 | 5550003245333506 | 946 | 2017/08 | 991 | 1 | 47209
39 | 9595958504204848 | 592 | 2017/08 | 559 | 3 | 20213
40 | 7320558988969368 | 453 | 2017/08 | 350 | 3 | 59626
41 | 3617040034123040 | 264 | 2017/08 | 388 | 2 | 33131
42 | 7498621519145589 | 741 | 2017/08 | 273 | 1 | 74282
43 | 1868477263732876 | 229 | 2017/08 | 656 | 3 | 77938
44 | 9401440762165448 | 163 | 2017/08 | 612 | 3 | 55793
45 | 8756165005716182 | 715 | 2017/08 | 819 | 1 | 46048
46 | 9975185529008916 | 140 | 2017/08 | 623 | 2 | 9873
47 | 3126937015651306 | 975 | 2017/08 | 574 | 2 | 39924
48 | 7906387436191204 | 199 | 2017/08 | 366 | 3 | 64678
49 | 1230606325351555 | 278 | 2017/08 | 468 | 3 | 56950
50 | 3976710501693667 | 854 | 2017/08 | 712 | 2 | 52085
